""
"Test Method","UG Lab Glass 3 Pt Bend mm_N.msm"
"Sample I. D.","IonExchange.mss"
"Specimen Number","8"

"Load (N)","Crosshead (mm)"

5.2,0.00200
5.9,0.00400
4.9,0.00400
4.8,0.00600
4.3,0.00800
5.0,0.01000
6.8,0.01200
7.9,0.01400
5.0,0.01400
4.5,0.01600
5.8,0.01800
5.7,0.02000
5.2,0.02200
6.8,0.02400
6.5,0.02600
6.6,0.02600
3.5,0.02800
4.9,0.03000
5.2,0.03200
5.3,0.03400
5.8,0.03600
6.8,0.03600
6.3,0.03800
5.3,0.04000
3.5,0.04200
6.8,0.04400
4.5,0.04400
4.5,0.04600
6.6,0.04800
4.4,0.05000
4.7,0.05200
4.6,0.05400
4.9,0.05400
5.9,0.05600
4.3,0.05800
5.5,0.06000
6.0,0.06200
4.6,0.06400
5.5,0.06600
6.2,0.06600
6.0,0.06800
5.9,0.07000
6.8,0.07200
5.9,0.07400
4.7,0.07600
3.5,0.07600
7.0,0.07800
5.0,0.08000
6.3,0.08200
4.8,0.08400
7.1,0.08400
5.3,0.08600
4.6,0.08800
7.2,0.09000
7.6,0.09200
6.0,0.09200
6.6,0.09400
5.6,0.09600
6.6,0.09800
5.5,0.10000
6.5,0.10200
6.2,0.10200
7.1,0.10400
6.2,0.10600
6.8,0.10800
3.3,0.11000
7.5,0.11200
6.3,0.11400
4.6,0.11400
6.3,0.11600
5.1,0.11800
5.5,0.12000
6.8,0.12200
4.7,0.12400
6.1,0.12400
6.1,0.12600
5.8,0.12800
5.9,0.13000
4.4,0.13200
5.3,0.13200
6.5,0.13400
6.9,0.13600
6.7,0.13800
3.1,0.14000
5.1,0.14200
4.3,0.14200
5.9,0.14600
5.4,0.14600
4.6,0.14800
6.0,0.15000
5.1,0.15200
4.9,0.15400
5.0,0.15400
5.7,0.15600
4.5,0.15800
6.3,0.16000
3.3,0.16200
4.3,0.16400
3.9,0.16400
4.3,0.16600
5.3,0.16800
6.0,0.17000
8.0,0.17200
6.3,0.17200
5.4,0.17400
4.2,0.17600
7.1,0.17800
6.5,0.18000
3.7,0.18200
5.1,0.18200
6.1,0.18400
3.6,0.18600
6.8,0.18800
7.0,0.19000
7.2,0.19200
5.4,0.19400
6.9,0.19400
6.1,0.19600
5.0,0.19800
6.2,0.20000
6.3,0.20200
7.6,0.20400
7.4,0.20400
6.1,0.20600
6.1,0.20800
7.9,0.21000
6.3,0.21200
5.6,0.21200
5.9,0.21400
5.5,0.21600
5.4,0.21800
4.6,0.22000
4.6,0.22200
5.5,0.22400
5.7,0.22600
7.7,0.22600
4.8,0.22800
5.1,0.23000
4.7,0.23200
3.8,0.23400
5.0,0.23600
6.0,0.23600
5.2,0.23800
5.3,0.24000
4.2,0.24200
7.9,0.24400
7.3,0.24400
5.1,0.24600
5.6,0.24800
5.9,0.25000
6.4,0.25200
6.2,0.25400
5.5,0.25400
7.9,0.25600
8.3,0.25800
8.1,0.26000
6.8,0.26200
5.2,0.26400
5.1,0.26600
5.5,0.26600
5.5,0.26800
6.6,0.27000
5.4,0.27200
5.1,0.27400
5.3,0.27600
6.3,0.27600
7.7,0.27800
5.5,0.28000
5.3,0.28200
5.9,0.28400
6.7,0.28400
4.0,0.28600
5.1,0.28800
3.9,0.29000
4.8,0.29200
3.1,0.29200
4.8,0.29400
4.0,0.29600
5.2,0.29800
3.4,0.30000
6.0,0.30200
6.0,0.30400
6.2,0.30600
4.1,0.30600
5.6,0.30800
3.4,0.31000
5.5,0.31200
6.1,0.31400
5.0,0.31600
5.5,0.31600
4.1,0.31800
6.0,0.32000
6.6,0.32200
5.8,0.32400
6.2,0.32400
5.0,0.32600
4.0,0.32800
5.4,0.33000
3.4,0.33200
4.9,0.33400
5.0,0.33400
7.8,0.33600
6.1,0.33800
7.3,0.34000
7.0,0.34200
5.4,0.34400
4.9,0.34600
5.9,0.34800
6.8,0.34800
4.5,0.35000
4.7,0.35200
5.3,0.35400
3.8,0.35600
6.3,0.35600
4.1,0.35800
8.0,0.36000
6.2,0.36200
5.3,0.36400
5.1,0.36600
5.6,0.36600
8.3,0.36800
7.4,0.37000
7.8,0.37200
7.1,0.37400
4.5,0.37600
5.4,0.37800
5.8,0.37800
7.6,0.38000
5.7,0.38200
3.8,0.38400
4.6,0.38600
4.4,0.38600
6.8,0.38800
8.1,0.39000
5.7,0.39200
6.7,0.39400
4.8,0.39600
4.8,0.39600
5.4,0.39800
5.0,0.40000
6.2,0.40200
7.6,0.40400
6.9,0.40400
5.4,0.40600
5.8,0.40800
6.2,0.41000
6.3,0.41200
7.8,0.41400
7.1,0.41400
5.8,0.41600
7.5,0.41800
5.0,0.42000
4.1,0.42200
6.8,0.42400
4.7,0.42600
6.0,0.42600
5.9,0.42800
4.2,0.43000
4.8,0.43200
2.8,0.43400
5.1,0.43600
4.8,0.43600
5.1,0.43800
6.9,0.44000
5.3,0.44200
4.9,0.44400
5.8,0.44400
5.4,0.44600
5.9,0.44800
6.3,0.45000
5.4,0.45200
6.7,0.45400
5.1,0.45400
5.3,0.45600
6.8,0.45800
5.1,0.46000
5.9,0.46200
3.6,0.46400
3.4,0.46600
5.0,0.46600
7.7,0.46800
7.3,0.47000
5.9,0.47200
3.8,0.47400
4.5,0.47600
3.5,0.47600
6.6,0.47800
5.5,0.48000
5.0,0.48200
7.5,0.48400
5.5,0.48400
8.0,0.48600
8.8,0.48800
9.5,0.49000
9.4,0.49200
11.1,0.49400
8.2,0.49400
12.6,0.49600
11.0,0.49800
12.9,0.50000
13.3,0.50200
12.8,0.50400
14.4,0.50600
13.6,0.50600
14.7,0.50800
16.6,0.51000
15.1,0.51200
17.5,0.51400
17.6,0.51600
16.2,0.51600
17.7,0.51800
17.2,0.52000
18.8,0.52200
20.9,0.52400
22.0,0.52400
21.7,0.52600
20.0,0.52800
20.2,0.53000
21.2,0.53200
24.6,0.53400
25.5,0.53400
25.3,0.53600
28.0,0.53800
25.4,0.54000
26.4,0.54200
27.7,0.54400
27.3,0.54600
30.0,0.54600
30.6,0.54800
30.7,0.55000
31.5,0.55200
31.6,0.55400
31.3,0.55600
35.0,0.55600
36.1,0.55800
35.3,0.56000
34.1,0.56200
35.9,0.56400
37.3,0.56400
36.7,0.56600
38.4,0.56800
39.8,0.57000
40.0,0.57200
38.4,0.57400
40.6,0.57400
42.1,0.57800
42.4,0.57800
40.9,0.58000
44.0,0.58200
45.5,0.58400
45.5,0.58600
43.8,0.58600
44.5,0.58800
45.9,0.59000
48.0,0.59200
48.7,0.59400
46.9,0.59600
47.3,0.59600
48.6,0.59800
50.8,0.60000
52.1,0.60200
52.8,0.60400
53.0,0.60400
52.9,0.60600
53.7,0.60800
54.4,0.61000
56.5,0.61200
57.6,0.61200
56.4,0.61400
54.4,0.61600
56.5,0.61800
56.5,0.62000
58.0,0.62200
59.7,0.62200
59.9,0.62400
60.1,0.62600
60.6,0.62800
60.8,0.63000
62.5,0.63200
64.0,0.63400
65.2,0.63400
64.4,0.63600
65.0,0.63800
64.4,0.64000
66.0,0.64200
68.3,0.64400
67.7,0.64400
68.4,0.64600
69.2,0.64800
70.1,0.65000
68.5,0.65200
72.3,0.65200
70.5,0.65400
71.1,0.65600
74.6,0.65800
74.2,0.66000
72.1,0.66200
74.8,0.66200
72.5,0.66400
73.0,0.66600
75.0,0.66800
78.2,0.67000
78.0,0.67200
77.0,0.67400
81.9,0.67400
79.0,0.67600
81.2,0.67800
79.4,0.68000
82.3,0.68200
82.9,0.68400
82.9,0.68400
84.1,0.68600
83.8,0.68800
86.2,0.69000
84.6,0.69200
88.8,0.69200
86.2,0.69400
88.2,0.69600
86.9,0.69800
89.2,0.70000
89.1,0.70200
88.8,0.70200
91.7,0.70400
89.2,0.70600
93.7,0.70800
93.3,0.71000
92.4,0.71200
95.4,0.71400
95.4,0.71400
96.3,0.71600
96.1,0.71800
96.2,0.72000
96.1,0.72200
98.9,0.72400
97.1,0.72400
99.8,0.72600
98.6,0.72800
99.2,0.73000
100.8,0.73200
100.4,0.73200
104.3,0.73400
102.7,0.73600
104.4,0.73800
102.1,0.74000
103.0,0.74200
105.1,0.74200
105.5,0.74400
108.9,0.74600
109.2,0.74800
110.0,0.75000
110.6,0.75200
110.2,0.75400
109.8,0.75400
110.8,0.75600
112.7,0.75800
115.9,0.76000
113.1,0.76200
112.9,0.76400
114.2,0.76400
113.7,0.76600
117.5,0.76800
117.1,0.77000
116.6,0.77200
117.0,0.77200
118.2,0.77400
120.1,0.77600
119.4,0.77800
119.2,0.78000
122.9,0.78200
123.1,0.78200
121.9,0.78400
122.0,0.78600
122.1,0.78800
124.7,0.79000
126.0,0.79000
126.4,0.79200
126.5,0.79400
127.2,0.79600
128.0,0.79800
125.9,0.80000
128.6,0.80200
129.7,0.80200
130.7,0.80400
133.5,0.80600
131.8,0.80800
131.5,0.81000
133.4,0.81200
129.7,0.81200
133.2,0.81400
135.4,0.81600
134.2,0.81800
136.9,0.82000
136.1,0.82000
136.3,0.82200
137.5,0.82400
139.3,0.82600
139.4,0.82800
139.9,0.83000
139.2,0.83000
140.5,0.83200
142.0,0.83400
144.6,0.83600
144.7,0.83800
143.4,0.84000
144.4,0.84200
145.3,0.84200
148.5,0.84400
148.4,0.84600
147.4,0.84800
148.3,0.85000
148.8,0.85200
149.9,0.85200
147.8,0.85400
149.9,0.85600
151.9,0.85800
152.7,0.86000
152.8,0.86000
153.0,0.86200
152.4,0.86400
155.4,0.86600
155.5,0.86800
155.0,0.87000
158.6,0.87200
156.5,0.87400
156.5,0.87400
158.2,0.87600
160.3,0.87800
160.4,0.88000
161.0,0.88200
161.7,0.88400
162.5,0.88400
161.3,0.88600
164.8,0.88800
163.4,0.89000
165.1,0.89200
165.0,0.89200
164.3,0.89400
166.5,0.89600
167.2,0.89800
165.6,0.90000
169.1,0.90200
169.7,0.90200
170.8,0.90400
168.4,0.90600
171.6,0.90800
172.0,0.91000
171.9,0.91000
175.4,0.91400
174.6,0.91400
173.3,0.91600
173.0,0.91800
176.0,0.92000
176.3,0.92200
176.3,0.92200
176.6,0.92400
180.8,0.92600
179.4,0.92800
179.5,0.93000
178.3,0.93200
181.0,0.93200
182.2,0.93400
182.8,0.93600
181.3,0.93800
182.9,0.94000
182.4,0.94000
187.9,0.94200
185.8,0.94400
185.8,0.94600
187.0,0.94800
187.3,0.94800
189.8,0.95000
189.0,0.95200
189.1,0.95400
191.7,0.95600
190.6,0.95800
194.3,0.96000
193.0,0.96200
191.3,0.96200
194.6,0.96400
195.3,0.96600
196.2,0.96800
196.7,0.97000
196.1,0.97200
197.7,0.97200
197.0,0.97400
200.7,0.97600
197.9,0.97800
200.1,0.98000
202.7,0.98000
201.2,0.98200
201.3,0.98400
202.7,0.98600
202.7,0.98800
203.6,0.99000
201.2,0.99000
203.8,0.99200
204.2,0.99400
203.0,0.99600
203.6,0.99800
205.3,1.00000
206.9,1.00200
206.4,1.00200
208.1,1.00400
206.8,1.00600
209.4,1.00800
208.5,1.01000
211.2,1.01200
209.7,1.01200
211.8,1.01400
211.3,1.01600
212.9,1.01800
213.5,1.02000
214.3,1.02000
216.1,1.02200
216.4,1.02400
214.6,1.02600
216.8,1.02800
214.3,1.03000
218.7,1.03000
217.8,1.03200
221.7,1.03400
219.7,1.03600
221.6,1.03800
221.9,1.04000
223.0,1.04200
224.0,1.04400
222.9,1.04400
223.5,1.04600
225.6,1.04800
227.8,1.05000
227.2,1.05200
226.7,1.05200
227.8,1.05400
228.5,1.05600
230.6,1.05800
232.3,1.06000
230.8,1.06000
232.3,1.06200
230.6,1.06400
235.1,1.06600
234.4,1.06800
237.2,1.07000
237.6,1.07200
235.6,1.07400
236.9,1.07400
238.4,1.07600
239.0,1.07800
240.9,1.08000
238.3,1.08200
240.6,1.08400
241.9,1.08400
240.9,1.08600
242.8,1.08800
244.0,1.09000
243.9,1.09200
246.3,1.09200
245.7,1.09400
246.4,1.09600
246.7,1.09800
244.8,1.10000
249.5,1.10000
249.4,1.10200
249.1,1.10400
248.9,1.10600
249.1,1.10800
250.4,1.11000
251.7,1.11000
253.4,1.11400
253.0,1.11400
254.9,1.11600
254.1,1.11800
255.2,1.12000
254.2,1.12200
258.1,1.12200
259.1,1.12400
259.9,1.12600
259.8,1.12800
259.3,1.13000
259.9,1.13200
259.9,1.13200
263.3,1.13400
262.9,1.13600
260.0,1.13800
263.4,1.14000
262.9,1.14000
265.8,1.14200
266.9,1.14400
266.4,1.14600
267.1,1.14800
267.0,1.15000
268.6,1.15000
269.9,1.15200
270.7,1.15400
270.8,1.15600
270.6,1.15800
272.7,1.16000
273.9,1.16200
273.6,1.16200
275.4,1.16400
276.0,1.16600
275.7,1.16800
276.4,1.17000
278.7,1.17200
276.5,1.17200
276.3,1.17400
276.4,1.17600
278.1,1.17800
278.0,1.18000
279.9,1.18000
281.1,1.18200
281.1,1.18400
281.6,1.18600
281.4,1.18800
283.3,1.19000
284.4,1.19000
285.0,1.19400
287.4,1.19400
287.2,1.19600
285.9,1.19800
288.9,1.20000
288.8,1.20200
290.0,1.20200
292.8,1.20400
289.2,1.20600
291.8,1.20800
292.0,1.21000
292.2,1.21200
295.2,1.21200
295.9,1.21400
294.9,1.21600
295.1,1.21800
295.1,1.22000
299.2,1.22000
300.0,1.22200
299.7,1.22400
301.0,1.22600
301.0,1.22800
300.0,1.23000
301.0,1.23000
302.5,1.23200
305.0,1.23400
302.4,1.23600
305.1,1.23800
305.4,1.24000
304.7,1.24200
304.4,1.24400
305.1,1.24400
306.1,1.24600
307.4,1.24800
308.6,1.25000
310.7,1.25200
309.9,1.25200
311.2,1.25400
311.4,1.25600
311.4,1.25800
313.0,1.26000
312.6,1.26000
312.8,1.26200
315.6,1.26400
316.1,1.26600
316.7,1.26800
317.9,1.27000
320.0,1.27000
318.2,1.27200
319.9,1.27400
322.0,1.27600
320.9,1.27800
323.1,1.28000
323.2,1.28200
322.4,1.28200
322.1,1.28400
324.5,1.28600
326.4,1.28800
326.5,1.29000
325.7,1.29200
326.2,1.29200
327.4,1.29400
327.8,1.29600
329.8,1.29800
329.8,1.30000
333.5,1.30000
331.2,1.30200
332.0,1.30400
331.6,1.30600
332.7,1.30800
333.3,1.31000
333.2,1.31000
334.8,1.31400
335.6,1.31400
335.9,1.31600
335.7,1.31800
337.5,1.32000
339.1,1.32200
342.5,1.32400
342.1,1.32400
341.4,1.32600
342.1,1.32800
341.7,1.33000
342.8,1.33200
344.0,1.33200
342.6,1.33400
345.8,1.33600
347.1,1.33800
347.7,1.34000
345.8,1.34200
348.5,1.34200
347.8,1.34400
349.6,1.34600
351.2,1.34800
350.2,1.35000
350.4,1.35200
352.0,1.35400
351.7,1.35400
353.5,1.35600
355.1,1.35800
352.8,1.36000
355.7,1.36200
354.4,1.36400
356.9,1.36400
356.1,1.36600
357.7,1.36800
359.2,1.37000
361.0,1.37200
357.2,1.37200
359.6,1.37400
361.0,1.37600
362.3,1.37800
366.2,1.38000
364.8,1.38200
366.9,1.38200
364.1,1.38400
363.3,1.38600
365.6,1.38800
367.8,1.39000
366.6,1.39200
366.8,1.39400
369.3,1.39600
368.6,1.39600
369.2,1.39800
371.0,1.40000
371.3,1.40200
371.7,1.40400
374.6,1.40400
372.1,1.40600
375.5,1.40800
374.7,1.41000
375.3,1.41200
377.1,1.41200
378.4,1.41400
377.6,1.41600
11.6,1.41800


