""
"Test Method","UG Lab Glass 3 Pt Bend mm_N.msm"
"Sample I. D.","IonExchange.mss"
"Specimen Number","10"

"Load (N)","Crosshead (mm)"

-3.4,0.00000
-3.2,0.00200
-3.1,0.00400
-2.4,0.00600
-2.0,0.00800
-2.3,0.00800
-1.1,0.01000
-2.9,0.01200
-2.3,0.01400
-2.6,0.01600
-1.5,0.01600
-2.4,0.01800
-1.3,0.02000
0.9,0.02200
0.8,0.02400
-2.2,0.02600
-1.0,0.02600
-2.9,0.02800
-3.1,0.03000
0.7,0.03200
-1.6,0.03400
-3.8,0.03600
-4.6,0.03800
-3.4,0.03800
-3.4,0.04000
-1.2,0.04200
0.5,0.04400
0.3,0.04600
-2.5,0.04800
-0.9,0.04800
-1.3,0.05000
-1.8,0.05200
0.1,0.05400
-1.5,0.05600
0.4,0.05600
-0.6,0.05800
-0.9,0.06000
-4.8,0.06200
-2.1,0.06400
-0.3,0.06600
-1.1,0.06600
-3.7,0.06800
-2.4,0.07000
-3.0,0.07200
-0.4,0.07400
-2.0,0.07600
0.4,0.07800
-1.0,0.08000
-1.4,0.08000
0.7,0.08200
-3.7,0.08400
-0.7,0.08600
0.7,0.08800
-1.3,0.08800
1.1,0.09000
0.1,0.09200
-4.0,0.09400
-0.8,0.09600
-0.1,0.09800
-1.8,0.09800
0.6,0.10000
-2.9,0.10200
-3.6,0.10400
-3.3,0.10600
-3.2,0.10800
-2.0,0.11000
-1.0,0.11000
0.7,0.11200
-3.0,0.11400
-3.7,0.11600
-0.6,0.11800
-2.2,0.12000
1.3,0.12000
-1.9,0.12200
-0.5,0.12400
-0.2,0.12600
-0.9,0.12800
-2.3,0.12800
0.1,0.13000
1.1,0.13200
1.8,0.13400
-0.9,0.13600
-1.1,0.13800
-0.4,0.13800
0.6,0.14000
2.0,0.14200
1.1,0.14400
-1.4,0.14600
-1.0,0.14600
-1.5,0.15000
-1.3,0.15000
-0.6,0.15200
-0.3,0.15400
-0.2,0.15600
-1.2,0.15800
0.5,0.15800
0.2,0.16000
-1.6,0.16200
1.2,0.16400
-0.9,0.16600
1.3,0.16800
-1.4,0.16800
-2.8,0.17000
0.3,0.17200
-2.3,0.17400
-1.4,0.17600
-1.0,0.17800
-0.4,0.17800
0.4,0.18000
-1.5,0.18200
-2.5,0.18400
-0.3,0.18600
-1.2,0.18800
0.7,0.19000
-0.2,0.19000
-1.0,0.19200
-0.1,0.19400
-0.5,0.19600
2.7,0.19800
-0.8,0.20000
-0.6,0.20000
-1.9,0.20200
-2.4,0.20400
-1.2,0.20600
0.9,0.20800
-0.8,0.20800
-0.1,0.21000
-0.2,0.21200
0.5,0.21400
-2.2,0.21600
-0.7,0.21800
0.7,0.22000
-0.2,0.22200
-0.3,0.22200
-1.2,0.22400
0.0,0.22600
-0.4,0.22800
-0.8,0.23000
-1.0,0.23200
0.5,0.23200
0.2,0.23400
-1.1,0.23600
1.4,0.23800
0.0,0.24000
-0.5,0.24000
-0.2,0.24200
-1.4,0.24400
0.5,0.24600
-0.5,0.24800
-0.7,0.24800
-0.4,0.25000
0.2,0.25200
0.4,0.25400
-2.1,0.25600
0.2,0.25800
-1.0,0.25800
-1.1,0.26000
-0.4,0.26200
-1.8,0.26400
2.7,0.26600
-1.1,0.26800
-1.4,0.27000
0.4,0.27000
-1.2,0.27200
1.0,0.27400
0.3,0.27600
-0.7,0.27800
0.3,0.28000
-3.0,0.28000
-0.5,0.28200
-2.0,0.28400
-2.5,0.28600
-0.5,0.28800
-2.0,0.28800
-2.4,0.29000
0.4,0.29200
-2.2,0.29400
-2.6,0.29600
-1.8,0.29600
-1.5,0.29800
0.5,0.30000
-2.3,0.30200
-2.0,0.30400
-0.1,0.30600
-3.9,0.30800
-0.3,0.31000
-1.1,0.31000
-0.6,0.31200
-2.3,0.31400
-2.0,0.31600
-0.6,0.31800
-2.7,0.32000
-2.0,0.32000
-1.9,0.32200
1.0,0.32400
-1.9,0.32600
-1.8,0.32800
-0.7,0.32800
1.9,0.33000
-1.0,0.33200
-0.8,0.33400
0.8,0.33600
-1.5,0.33800
-3.1,0.33800
-1.9,0.34000
-1.1,0.34200
-1.9,0.34400
-3.4,0.34600
-1.5,0.34800
-1.9,0.35000
-2.3,0.35000
0.9,0.35200
-0.2,0.35400
-0.8,0.35600
0.7,0.35800
-2.1,0.36000
-2.2,0.36000
-0.2,0.36200
1.1,0.36400
-1.2,0.36600
-1.1,0.36800
-1.7,0.36800
-1.6,0.37000
-0.2,0.37200
0.2,0.37400
0.5,0.37600
0.5,0.37600
0.3,0.37800
-1.8,0.38000
-2.3,0.38200
-2.3,0.38400
-1.8,0.38600
0.0,0.38600
-1.3,0.39000
-0.5,0.39000
-2.9,0.39200
-3.5,0.39400
-2.9,0.39600
-2.4,0.39800
-1.7,0.40000
-2.4,0.40000
-1.2,0.40200
-1.7,0.40400
0.2,0.40600
1.7,0.40800
1.0,0.40800
3.7,0.41000
3.6,0.41200
2.6,0.41400
3.7,0.41600
3.5,0.41800
7.6,0.41800
7.1,0.42000
6.1,0.42200
9.1,0.42400
6.1,0.42600
7.6,0.42800
9.1,0.43000
9.5,0.43000
10.0,0.43200
8.6,0.43400
11.8,0.43600
10.9,0.43800
13.7,0.44000
15.5,0.44000
15.3,0.44200
13.8,0.44400
15.6,0.44600
16.1,0.44800
14.6,0.44800
18.0,0.45000
17.8,0.45200
20.2,0.45400
18.8,0.45600
19.6,0.45600
20.7,0.45800
18.7,0.46000
20.6,0.46200
21.3,0.46400
22.0,0.46600
23.6,0.46600
22.4,0.46800
25.9,0.47000
24.3,0.47200
24.8,0.47400
27.4,0.47600
24.7,0.47800
30.6,0.47800
26.8,0.48000
27.7,0.48200
28.0,0.48400
28.6,0.48600
32.6,0.48800
32.4,0.48800
32.0,0.49000
33.5,0.49200
32.8,0.49400
32.6,0.49600
35.4,0.49600
35.2,0.49800
35.8,0.50000
36.5,0.50200
36.4,0.50400
37.6,0.50600
37.2,0.50600
40.0,0.50800
41.5,0.51000
40.6,0.51200
41.0,0.51400
40.9,0.51600
41.6,0.51800
43.0,0.51800
43.4,0.52000
41.9,0.52200
44.0,0.52400
46.3,0.52600
44.6,0.52800
45.6,0.52800
47.0,0.53000
46.5,0.53200
47.3,0.53400
49.7,0.53600
47.5,0.53600
49.8,0.53800
47.5,0.54000
51.2,0.54200
51.8,0.54400
51.9,0.54600
54.1,0.54600
53.2,0.54800
52.6,0.55000
54.5,0.55200
57.0,0.55400
57.0,0.55600
58.0,0.55800
56.3,0.55800
57.7,0.56000
57.8,0.56200
60.9,0.56400
57.7,0.56600
59.9,0.56800
62.5,0.56800
62.4,0.57000
60.9,0.57200
60.3,0.57400
63.4,0.57600
66.4,0.57600
64.5,0.57800
63.8,0.58000
64.5,0.58200
68.4,0.58400
69.3,0.58600
69.0,0.58600
69.8,0.58800
69.0,0.59000
68.8,0.59200
70.9,0.59400
71.7,0.59600
73.3,0.59800
74.1,0.59800
73.5,0.60000
72.7,0.60200
73.9,0.60400
76.9,0.60600
77.4,0.60800
74.9,0.60800
75.9,0.61000
76.8,0.61200
78.5,0.61400
79.1,0.61600
80.5,0.61600
80.5,0.61800
82.7,0.62000
81.5,0.62200
83.0,0.62400
84.1,0.62400
81.6,0.62600
83.1,0.62800
85.8,0.63000
85.6,0.63200
87.4,0.63400
87.0,0.63600
89.1,0.63800
89.9,0.63800
87.8,0.64000
90.6,0.64200
91.3,0.64400
92.6,0.64600
92.8,0.64600
91.7,0.64800
92.2,0.65000
93.0,0.65200
94.7,0.65400
96.6,0.65600
94.9,0.65600
94.8,0.65800
96.1,0.66000
98.6,0.66200
98.1,0.66400
98.0,0.66400
100.9,0.66600
99.7,0.66800
100.9,0.67000
103.1,0.67200
102.4,0.67400
102.8,0.67400
102.6,0.67600
102.7,0.67800
103.5,0.68000
105.7,0.68200
106.3,0.68200
107.3,0.68600
109.9,0.68600
110.7,0.68800
108.9,0.69000
111.9,0.69200
110.3,0.69400
109.4,0.69600
111.2,0.69600
110.0,0.69800
114.5,0.70000
113.8,0.70200
112.1,0.70400
115.3,0.70400
114.4,0.70600
115.8,0.70800
118.2,0.71000
116.6,0.71200
117.1,0.71400
118.1,0.71400
119.4,0.71600
120.6,0.71800
122.0,0.72000
121.6,0.72200
121.4,0.72400
119.4,0.72600
123.4,0.72600
123.3,0.72800
127.5,0.73000
126.7,0.73200
126.1,0.73400
127.3,0.73600
127.3,0.73600
126.7,0.73800
127.5,0.74000
127.5,0.74200
130.0,0.74400
129.5,0.74400
130.2,0.74600
130.7,0.74800
131.4,0.75000
134.0,0.75200
132.2,0.75400
135.1,0.75400
136.2,0.75800
134.0,0.75800
135.1,0.76000
136.3,0.76200
136.4,0.76400
138.7,0.76600
136.2,0.76600
138.8,0.76800
139.3,0.77000
139.7,0.77200
140.4,0.77400
142.4,0.77600
145.3,0.77600
145.5,0.77800
143.0,0.78000
144.7,0.78200
144.2,0.78400
144.6,0.78400
148.5,0.78600
148.9,0.78800
149.6,0.79000
148.7,0.79200
147.8,0.79200
149.1,0.79400
149.8,0.79600
154.3,0.79800
151.5,0.80000
150.6,0.80200
152.1,0.80200
151.5,0.80400
154.4,0.80600
156.0,0.80800
155.3,0.81000
157.8,0.81200
157.0,0.81400
157.5,0.81400
160.0,0.81600
157.1,0.81800
160.7,0.82000
160.8,0.82200
161.4,0.82400
162.1,0.82400
161.7,0.82600
165.2,0.82800
163.4,0.83000
163.3,0.83200
166.7,0.83400
165.2,0.83400
167.9,0.83600
167.0,0.83800
166.7,0.84000
170.2,0.84200
168.2,0.84400
171.6,0.84600
170.9,0.84600
170.9,0.84800
172.7,0.85000
171.3,0.85200
172.3,0.85400
174.0,0.85600
173.9,0.85600
175.6,0.85800
174.4,0.86000
175.2,0.86200
178.2,0.86400
177.7,0.86400
178.6,0.86600
177.3,0.86800
178.4,0.87000
178.7,0.87200
181.1,0.87400
181.0,0.87400
183.5,0.87600
182.4,0.87800
184.8,0.88000
183.0,0.88200
183.2,0.88400
185.1,0.88600
186.6,0.88600
188.1,0.88800
188.3,0.89000
187.5,0.89200
187.9,0.89400
189.4,0.89600
190.3,0.89600
190.8,0.89800
190.1,0.90000
193.2,0.90200
192.2,0.90400
192.5,0.90400
193.7,0.90600
195.3,0.90800
196.7,0.91000
196.8,0.91200
197.4,0.91400
197.7,0.91400
197.3,0.91600
196.7,0.91800
198.8,0.92000
200.7,0.92200
201.4,0.92400
201.6,0.92600
200.9,0.92600
203.0,0.92800
202.9,0.93000
204.5,0.93200
204.8,0.93400
207.6,0.93600
206.0,0.93600
205.8,0.93800
207.3,0.94000
208.2,0.94200
208.1,0.94400
211.6,0.94400
209.2,0.94600
211.8,0.94800
211.5,0.95000
212.3,0.95200
212.7,0.95400
212.4,0.95400
214.9,0.95600
215.8,0.95800
214.3,0.96000
216.8,0.96200
218.1,0.96400
219.0,0.96600
219.6,0.96600
218.9,0.96800
219.4,0.97000
219.7,0.97200
222.0,0.97400
224.0,0.97600
222.7,0.97600
224.7,0.97800
224.7,0.98000
224.3,0.98200
224.0,0.98400
223.5,0.98400
226.3,0.98600
225.7,0.98800
228.3,0.99000
228.6,0.99200
229.0,0.99400
231.1,0.99400
231.0,0.99600
231.0,0.99800
232.6,1.00000
231.7,1.00200
232.9,1.00400
231.1,1.00600
233.7,1.00600
236.9,1.00800
235.6,1.01000
234.1,1.01200
236.1,1.01400
236.5,1.01600
237.6,1.01600
238.3,1.01800
239.5,1.02000
238.9,1.02200
240.3,1.02400
242.8,1.02400
242.9,1.02600
241.8,1.02800
243.0,1.03000
244.2,1.03200
243.3,1.03400
245.6,1.03400
244.6,1.03600
246.3,1.03800
247.7,1.04000
249.3,1.04200
248.8,1.04400
248.9,1.04600
249.4,1.04600
250.6,1.04800
252.5,1.05000
250.0,1.05200
253.4,1.05400
255.3,1.05600
252.8,1.05600
254.4,1.05800
254.4,1.06000
254.7,1.06200
257.1,1.06400
257.4,1.06400
258.0,1.06600
258.0,1.06800
258.8,1.07000
260.9,1.07200
260.2,1.07400
261.4,1.07400
262.7,1.07600
264.2,1.07800
264.2,1.08000
264.8,1.08200
265.4,1.08400
265.0,1.08600
267.0,1.08600
267.8,1.08800
266.6,1.09000
266.4,1.09200
268.6,1.09400
268.5,1.09600
269.2,1.09600
271.7,1.09800
272.2,1.10000
272.6,1.10200
270.8,1.10400
272.2,1.10400
274.4,1.10600
274.9,1.10800
276.8,1.11000
275.8,1.11200
274.1,1.11400
277.0,1.11400
276.9,1.11600
277.6,1.11800
278.4,1.12000
280.3,1.12200
281.8,1.12400
281.7,1.12600
281.5,1.12600
281.9,1.12800
282.1,1.13000
285.1,1.13200
283.2,1.13400
286.0,1.13600
288.3,1.13600
286.0,1.13800
288.9,1.14000
289.9,1.14200
289.9,1.14400
290.4,1.14400
288.0,1.14600
291.8,1.14800
290.9,1.15000
291.0,1.15200
291.6,1.15400
293.6,1.15400
293.2,1.15600
296.0,1.15800
294.0,1.16000
297.0,1.16200
297.3,1.16400
298.6,1.16600
299.6,1.16600
298.2,1.16800
298.9,1.17000
298.8,1.17200
299.2,1.17400
300.8,1.17600
302.1,1.17600
302.9,1.17800
303.7,1.18000
302.6,1.18200
304.3,1.18400
304.8,1.18400
307.9,1.18600
305.5,1.18800
307.8,1.19000
309.2,1.19200
309.7,1.19400
309.5,1.19400
312.3,1.19800
310.9,1.19800
313.2,1.20000
312.9,1.20200
313.8,1.20400
312.3,1.20600
313.6,1.20800
317.2,1.20800
315.5,1.21000
316.4,1.21200
317.0,1.21400
318.1,1.21600
317.8,1.21600
320.7,1.21800
319.9,1.22000
319.0,1.22200
319.2,1.22400
321.8,1.22400
320.6,1.22600
323.0,1.22800
325.1,1.23000
326.3,1.23200
326.7,1.23400
326.6,1.23600
325.6,1.23800
328.9,1.23800
328.7,1.24000
329.9,1.24200
328.4,1.24400
331.4,1.24600
331.0,1.24800
331.0,1.24800
333.5,1.25000
333.7,1.25200
334.4,1.25400
335.2,1.25600
333.1,1.25600
336.0,1.25800
334.3,1.26000
336.3,1.26200
337.3,1.26400
339.9,1.26600
337.8,1.26600
340.2,1.27000
341.5,1.27000
338.8,1.27200
339.9,1.27400
341.3,1.27600
343.6,1.27800
342.5,1.27800
343.3,1.28000
345.0,1.28200
345.8,1.28400
347.4,1.28600
348.0,1.28800
345.8,1.28800
349.9,1.29000
349.0,1.29200
350.0,1.29400
351.5,1.29600
350.5,1.29600
352.5,1.29800
352.9,1.30000
356.4,1.30200
355.0,1.30400
353.8,1.30600
354.6,1.30600
356.0,1.30800
358.9,1.31000
358.4,1.31200
356.2,1.31400
357.4,1.31400
359.0,1.31800
360.7,1.31800
361.5,1.32000
359.8,1.32200
361.8,1.32400
361.4,1.32600
361.7,1.32600
362.4,1.32800
365.7,1.33000
366.2,1.33200
366.5,1.33400
365.8,1.33600
367.9,1.33600
368.2,1.33800
368.4,1.34000
371.8,1.34200
370.7,1.34400
370.3,1.34400
370.8,1.34600
369.8,1.34800
373.4,1.35000
371.8,1.35200
375.5,1.35400
375.7,1.35400
374.4,1.35800
375.4,1.35800
377.2,1.36000
376.7,1.36200
377.6,1.36400
378.2,1.36600
379.9,1.36800
381.6,1.36800
380.0,1.37000
380.0,1.37200
379.1,1.37400
383.1,1.37600
383.9,1.37600
384.0,1.37800
384.2,1.38000
384.4,1.38200
387.5,1.38400
385.2,1.38400
387.5,1.38600
386.2,1.38800
390.4,1.39000
390.0,1.39200
388.5,1.39400
390.3,1.39400
392.3,1.39800
390.4,1.39800
393.5,1.40000
393.1,1.40200
394.2,1.40400
393.3,1.40600
395.2,1.40800
399.3,1.40800
396.1,1.41000
398.0,1.41200
397.5,1.41400
396.8,1.41600
400.6,1.41600
400.5,1.41800
402.2,1.42000
403.4,1.42200
401.4,1.42400
401.6,1.42600
403.8,1.42600
402.3,1.42800
405.0,1.43000
405.7,1.43200
406.8,1.43400
406.5,1.43600
406.7,1.43800
408.5,1.43800
408.3,1.44000
410.9,1.44200
410.2,1.44400
411.2,1.44600
409.9,1.44800
411.2,1.44800
413.5,1.45000
413.4,1.45200
414.1,1.45400
415.0,1.45600
417.0,1.45600
416.1,1.45800
415.7,1.46000
417.6,1.46200
418.3,1.46400
420.7,1.46600
418.3,1.46600
420.9,1.46800
421.4,1.47000
420.5,1.47200
423.9,1.47400
422.8,1.47600
424.9,1.47800
424.8,1.47800
423.6,1.48000
425.4,1.48200
425.4,1.48400
429.1,1.48600
430.7,1.48800
427.7,1.48800
429.4,1.49000
429.3,1.49200
429.1,1.49400
429.4,1.49600
430.7,1.49600
433.5,1.49800
433.9,1.50000
435.7,1.50200
436.9,1.50400
435.5,1.50600
436.8,1.50600
437.7,1.50800
437.7,1.51000
18.8,1.51200


