""
"Test Method","UG Lab Glass 3 Pt Bend mm_N.msm"
"Sample I. D.","IonExchange.mss"
"Specimen Number","3"

"Load (N)","Crosshead (mm)"

-3.0,0.00200
-4.5,0.00600
-2.2,0.01000
-2.5,0.01200
-3.6,0.01600
-1.5,0.02000
-2.2,0.02200
-4.6,0.02600
-2.4,0.03000
-2.2,0.03200
-4.3,0.03600
-2.5,0.04000
-2.5,0.04200
-2.9,0.04600
-0.9,0.05000
-0.9,0.05400
-1.8,0.05600
-0.6,0.06000
-0.4,0.06400
-2.2,0.06600
-1.2,0.07000
-1.2,0.07200
-1.1,0.07600
-0.3,0.08000
-1.5,0.08200
-1.1,0.08600
-0.8,0.09000
-1.5,0.09400
1.3,0.09600
-2.3,0.10000
-1.9,0.10200
-1.0,0.10600
1.8,0.11000
-1.5,0.11200
-1.6,0.11600
-0.4,0.12000
-0.4,0.12200
-2.2,0.12600
-0.3,0.13000
-1.0,0.13200
-0.9,0.13600
-0.9,0.14000
-2.0,0.14200
-1.9,0.14600
-2.0,0.15000
-0.2,0.15200
1.6,0.15600
-2.2,0.16000
0.5,0.16200
0.1,0.16600
0.1,0.17000
-0.2,0.17200
-0.4,0.17600
0.9,0.18000
-1.6,0.18200
2.4,0.18600
0.8,0.19000
-3.7,0.19200
-1.0,0.19600
-1.2,0.20000
-0.9,0.20200
-2.5,0.20600
-1.5,0.21000
-0.8,0.21200
0.8,0.21600
0.1,0.22000
-0.1,0.22400
-2.0,0.22600
0.9,0.23000
-0.2,0.23200
-2.5,0.23600
-1.1,0.24000
0.6,0.24200
-0.7,0.24600
-0.5,0.25000
-1.1,0.25400
-1.8,0.25600
-1.7,0.26000
2.4,0.26400
0.4,0.26600
-2.5,0.27000
2.3,0.27200
0.5,0.27600
-0.5,0.28000
-2.5,0.28200
-0.5,0.28600
-0.1,0.29000
0.0,0.29200
0.3,0.29600
-0.3,0.30000
-1.4,0.30200
0.4,0.30600
-0.4,0.31000
-1.5,0.31200
0.7,0.31600
1.9,0.32000
2.6,0.32200
-0.7,0.32600
-0.3,0.33000
-2.2,0.33400
-1.0,0.33600
-0.9,0.34000
-1.2,0.34400
-1.5,0.34600
-1.6,0.35000
0.9,0.35200
-0.6,0.35600
-0.4,0.36000
0.4,0.36200
0.5,0.36600
-0.2,0.37000
0.6,0.37400
-0.7,0.37600
-0.8,0.38000
-0.8,0.38400
0.4,0.38600
1.4,0.39000
-3.4,0.39200
-0.4,0.39600
0.3,0.40000
-0.1,0.40200
-1.0,0.40600
-0.6,0.41000
0.8,0.41400
-0.1,0.41600
0.0,0.42000
1.4,0.42400
2.0,0.42600
2.8,0.43000
0.7,0.43200
-0.8,0.43600
-2.2,0.44000
-0.3,0.44200
-1.7,0.44600
-0.1,0.45000
0.2,0.45400
0.8,0.45600
-1.3,0.46000
-2.8,0.46400
-0.4,0.46600
-1.5,0.47000
1.7,0.47200
0.2,0.47600
-2.3,0.48000
-0.5,0.48200
-1.7,0.48600
0.6,0.49000
0.1,0.49400
-0.5,0.49600
-1.1,0.50000
0.4,0.50400
3.8,0.50600
0.3,0.51000
3.0,0.51200
5.2,0.51600
7.7,0.52000
8.3,0.52200
8.0,0.52600
9.9,0.53000
11.0,0.53400
11.7,0.53600
12.8,0.54000
16.0,0.54400
14.0,0.54600
17.4,0.55000
19.7,0.55200
17.5,0.55600
22.0,0.56000
23.6,0.56200
25.0,0.56600
23.6,0.57000
25.4,0.57400
26.7,0.57600
28.5,0.58000
29.1,0.58400
31.6,0.58600
31.4,0.59000
33.1,0.59200
37.5,0.59600
37.7,0.60000
35.3,0.60200
38.8,0.60600
41.5,0.61000
41.6,0.61200
42.9,0.61600
43.6,0.62000
44.3,0.62200
48.6,0.62600
48.9,0.63000
49.6,0.63200
51.0,0.63600
52.0,0.64000
53.4,0.64200
53.1,0.64600
56.1,0.65000
56.8,0.65200
58.5,0.65600
59.6,0.66000
62.1,0.66200
62.6,0.66600
62.8,0.67000
64.6,0.67200
64.0,0.67600
66.8,0.68000
67.9,0.68200
70.6,0.68600
71.6,0.69000
71.8,0.69200
75.8,0.69600
76.4,0.70000
75.5,0.70200
76.0,0.70600
79.1,0.71000
78.4,0.71200
83.6,0.71600
85.1,0.72000
84.0,0.72200
85.1,0.72600
86.8,0.72800
91.5,0.73200
88.2,0.73600
91.1,0.73800
92.4,0.74200
93.6,0.74600
94.9,0.75000
96.2,0.75200
97.2,0.75600
99.7,0.76000
102.1,0.76200
102.0,0.76600
100.2,0.76800
101.9,0.77200
106.2,0.77600
106.6,0.77800
106.2,0.78200
108.1,0.78600
111.2,0.79000
113.1,0.79200
113.8,0.79600
114.2,0.80000
114.3,0.80200
117.3,0.80600
119.6,0.80800
118.7,0.81200
119.7,0.81600
124.5,0.81800
124.3,0.82200
126.9,0.82600
128.2,0.83000
127.5,0.83200
127.7,0.83600
129.4,0.84000
134.3,0.84200
133.5,0.84600
135.0,0.84800
139.4,0.85200
139.0,0.85600
139.5,0.85800
142.3,0.86200
142.4,0.86600
143.5,0.87000
144.2,0.87200
145.4,0.87600
147.7,0.88000
148.9,0.88200
152.2,0.88600
151.4,0.88800
152.4,0.89200
155.1,0.89600
155.5,0.89800
157.7,0.90200
158.4,0.90600
160.5,0.91000
161.1,0.91200
161.8,0.91600
164.1,0.92000
165.4,0.92200
165.5,0.92600
166.7,0.92800
169.4,0.93200
167.5,0.93600
169.8,0.93800
171.2,0.94200
172.6,0.94600
173.8,0.94800
175.3,0.95200
177.3,0.95600
178.1,0.95800
180.5,0.96200
180.7,0.96600
184.4,0.96800
183.9,0.97200
184.6,0.97600
186.3,0.97800
187.3,0.98200
192.0,0.98600
190.3,0.99000
192.4,0.99200
192.3,0.99600
196.1,1.00000
195.8,1.00200
196.3,1.00600
200.6,1.00800
199.8,1.01200
200.2,1.01600
203.0,1.01800
206.7,1.02200
204.6,1.02600
205.6,1.03000
206.4,1.03200
208.7,1.03600
209.8,1.04000
214.6,1.04200
212.2,1.04600
213.6,1.04800
218.6,1.05200
219.0,1.05600
216.6,1.05800
220.7,1.06200
222.2,1.06600
223.4,1.07000
224.1,1.07200
225.7,1.07600
227.6,1.08000
227.3,1.08200
231.5,1.08600
232.3,1.08800
230.8,1.09200
234.7,1.09600
236.3,1.09800
236.7,1.10200
237.6,1.10600
239.1,1.11000
240.5,1.11200
241.4,1.11600
243.1,1.12000
244.6,1.12200
246.8,1.12600
247.0,1.12800
248.7,1.13200
250.1,1.13600
250.8,1.13800
252.6,1.14200
253.6,1.14600
253.3,1.15000
257.4,1.15200
257.4,1.15600
259.5,1.16000
261.4,1.16200
262.2,1.16600
262.4,1.16800
263.8,1.17200
267.3,1.17600
267.4,1.17800
267.7,1.18200
270.6,1.18600
271.2,1.19000
274.6,1.19200
274.3,1.19600
277.8,1.20000
279.6,1.20200
280.5,1.20600
281.2,1.20800
284.5,1.21200
282.7,1.21600
285.1,1.21800
286.4,1.22200
286.5,1.22600
290.5,1.23000
291.6,1.23200
290.9,1.23600
294.1,1.24000
294.3,1.24200
296.3,1.24600
300.2,1.24800
300.2,1.25200
301.3,1.25600
300.6,1.25800
305.8,1.26200
304.3,1.26600
306.2,1.27000
308.4,1.27200
309.0,1.27600
309.3,1.28000
312.0,1.28200
310.4,1.28600
314.3,1.28800
313.5,1.29200
318.4,1.29600
317.7,1.29800
317.6,1.30200
321.9,1.30600
322.2,1.31000
322.6,1.31200
322.7,1.31600
326.5,1.32000
327.5,1.32200
329.7,1.32600
330.7,1.32800
331.6,1.33200
333.0,1.33600
333.0,1.33800
336.3,1.34200
336.8,1.34600
337.7,1.35000
340.7,1.35200
343.4,1.35600
344.0,1.36000
343.7,1.36200
344.2,1.36600
347.2,1.36800
349.0,1.37200
350.4,1.37600
349.9,1.38000
350.8,1.38200
353.4,1.38600
357.1,1.39000
354.7,1.39200
357.6,1.39600
358.5,1.40000
358.9,1.40200
363.9,1.40600
362.9,1.41000
364.8,1.41200
366.8,1.41600
368.4,1.42000
368.7,1.42200
371.2,1.42600
370.4,1.43000
375.1,1.43200
373.9,1.43600
377.4,1.44000
375.5,1.44200
378.6,1.44600
379.8,1.45000
380.5,1.45200
382.0,1.45600
382.6,1.45800
385.5,1.46200
387.5,1.46600
388.1,1.47000
388.2,1.47200
391.5,1.47600
393.9,1.48000
393.1,1.48200
393.5,1.48600
397.5,1.48800
397.9,1.49200
399.4,1.49600
399.5,1.49800
399.5,1.50200
403.0,1.50600
405.1,1.51000
406.3,1.51200
408.1,1.51600
409.0,1.52000
410.9,1.52200
411.6,1.52600
412.6,1.52800
416.0,1.53200
414.8,1.53600
417.8,1.53800
419.6,1.54200
418.4,1.54600
419.4,1.55000
423.0,1.55200
424.6,1.55600
425.3,1.56000
427.0,1.56200
429.2,1.56600
428.5,1.57000
431.2,1.57200
430.7,1.57600
432.6,1.58000
436.5,1.58200
435.8,1.58600
438.4,1.59000
438.7,1.59200
440.8,1.59600
440.5,1.60000
442.7,1.60200
444.1,1.60600
447.7,1.61000
445.4,1.61200
448.8,1.61600
451.7,1.62000
453.5,1.62200
452.8,1.62600
455.9,1.63000
458.7,1.63200
455.2,1.63600
457.1,1.64000
461.8,1.64200
461.1,1.64600
462.4,1.64800
464.2,1.65200
464.7,1.65600
465.2,1.65800
469.0,1.66200
469.8,1.66600
469.5,1.67000
472.6,1.67200
474.4,1.67600
475.5,1.68000
476.0,1.68200
477.3,1.68600
480.4,1.69000
480.9,1.69200
482.0,1.69600
483.1,1.70000
485.4,1.70200
485.0,1.70600
490.5,1.71000
490.3,1.71200
491.5,1.71600
495.4,1.72000
496.5,1.72200
496.1,1.72600
494.9,1.73000
498.0,1.73400
498.8,1.73600
503.3,1.74000
501.3,1.74400
502.1,1.74600
506.2,1.75000
509.1,1.75200
511.4,1.75600
509.6,1.76000
510.5,1.76200
511.8,1.76600
513.1,1.77000
513.0,1.77200
515.2,1.77600
513.6,1.78000
520.0,1.78200
518.2,1.78600
520.0,1.79000
521.1,1.79200
522.8,1.79600
522.6,1.80000
525.1,1.80200
524.2,1.80600
527.3,1.81000
530.1,1.81200
529.9,1.81600
529.8,1.82000
534.2,1.82200
534.7,1.82600
537.2,1.83000
540.7,1.83200
537.1,1.83600
540.2,1.84000
544.8,1.84200
544.3,1.84600
544.2,1.85000
546.3,1.85200
549.4,1.85600
551.0,1.86000
551.0,1.86200
552.9,1.86600
553.4,1.87000
556.0,1.87200
559.0,1.87600
559.4,1.88000
558.6,1.88200
561.9,1.88600
564.8,1.89000
566.5,1.89200
566.0,1.89600
568.3,1.90000
569.0,1.90200
569.1,1.90600
572.9,1.91000
572.9,1.91200
571.1,1.91600
576.7,1.92000
578.5,1.92200
576.4,1.92600
579.4,1.93000
579.5,1.93200
580.9,1.93600
584.8,1.94000
585.1,1.94200
587.2,1.94600
586.9,1.95000
589.9,1.95200
591.1,1.95600
591.7,1.96000
594.0,1.96200
595.6,1.96600
594.8,1.96800
595.6,1.97200
599.8,1.97600
599.9,1.98000
603.2,1.98200
603.5,1.98600
606.3,1.99000
606.8,1.99200
608.3,1.99600
609.6,2.00000
610.0,2.00200
610.7,2.00600
613.3,2.01000
613.5,2.01400
615.1,2.01600
617.7,2.02000
617.8,2.02400
618.7,2.02600
622.8,2.03000
621.8,2.03200
623.7,2.03600
625.4,2.04000
626.0,2.04200
630.1,2.04600
629.2,2.05000
631.3,2.05200
632.3,2.05600
636.2,2.06000
635.0,2.06200
636.4,2.06600
636.6,2.07000
639.8,2.07200
644.2,2.07600
641.5,2.08000
642.2,2.08200
646.0,2.08600
648.6,2.09000
646.3,2.09200
649.3,2.09600
651.5,2.09800
652.8,2.10200
653.9,2.10600
653.9,2.11000
657.4,2.11200
658.6,2.11600
661.0,2.12000
661.9,2.12200
661.2,2.12600
663.3,2.12800
665.1,2.13200
666.7,2.13600
668.3,2.13800
671.4,2.14200
669.9,2.14600
671.4,2.15000
675.7,2.15200
675.0,2.15600
674.8,2.16000
677.3,2.16200
679.1,2.16600
679.2,2.16800
681.7,2.17200
684.0,2.17600
688.8,2.17800
687.4,2.18200
686.5,2.18600
690.2,2.19000
691.7,2.19200
691.6,2.19600
694.4,2.20000
694.2,2.20200
697.3,2.20600
697.5,2.20800
699.8,2.21200
700.7,2.21600
702.1,2.21800
704.6,2.22200
1.4,2.22400


