""
"Test Method","UG Lab Glass 3 Pt Bend mm_N.msm"
"Sample I. D.","Longitudinal.mss"
"Specimen Number","8"

"Load (N)","Crosshead (mm)"

3.0,0.00200
1.1,0.00200
-0.5,0.00400
0.7,0.00600
1.6,0.00800
2.0,0.01000
1.8,0.01200
3.8,0.01200
2.7,0.01400
1.1,0.01600
0.4,0.01800
1.3,0.02000
0.7,0.02200
1.7,0.02400
2.6,0.02400
-2.0,0.02600
1.1,0.02800
0.4,0.03000
2.2,0.03200
1.6,0.03400
2.5,0.03400
2.2,0.03600
2.8,0.03800
0.9,0.04000
3.8,0.04200
-0.8,0.04200
4.4,0.04400
2.7,0.04600
2.6,0.04800
3.6,0.05000
-1.8,0.05000
1.3,0.05200
-0.6,0.05400
-1.4,0.05600
1.5,0.05800
0.4,0.06000
2.9,0.06200
1.2,0.06400
0.6,0.06400
2.7,0.06600
2.8,0.06800
2.3,0.07000
1.7,0.07200
0.7,0.07400
0.2,0.07400
0.6,0.07600
2.1,0.07800
1.5,0.08000
1.2,0.08200
0.1,0.08200
0.6,0.08400
2.1,0.08600
3.0,0.08800
1.7,0.09000
1.9,0.09200
2.9,0.09200
0.4,0.09400
2.4,0.09600
2.6,0.09800
0.1,0.10000
2.0,0.10200
1.1,0.10400
1.5,0.10400
1.0,0.10600
0.9,0.10800
0.1,0.11000
0.6,0.11200
2.9,0.11400
1.2,0.11400
3.1,0.11600
1.3,0.11800
1.3,0.12000
0.5,0.12200
1.2,0.12200
1.6,0.12400
1.0,0.12600
-0.1,0.12800
-2.0,0.13000
0.6,0.13200
1.7,0.13200
1.3,0.13400
1.1,0.13600
2.3,0.13800
0.6,0.14000
2.0,0.14200
-0.5,0.14400
0.8,0.14600
3.2,0.14600
2.9,0.14800
1.5,0.15000
1.6,0.15200
0.3,0.15400
1.3,0.15400
3.0,0.15600
0.9,0.15800
1.5,0.16000
0.2,0.16200
-0.3,0.16200
1.9,0.16400
1.0,0.16600
2.6,0.16800
0.5,0.17000
1.6,0.17200
0.5,0.17200
-0.4,0.17600
-0.6,0.17600
4.3,0.17800
3.3,0.18000
1.4,0.18200
1.5,0.18400
1.5,0.18400
2.5,0.18600
0.2,0.18800
3.1,0.19000
2.0,0.19200
0.8,0.19400
-0.8,0.19400
1.4,0.19600
2.2,0.19800
1.0,0.20000
2.7,0.20200
2.9,0.20200
2.5,0.20400
1.4,0.20600
-0.9,0.20800
0.5,0.21000
1.7,0.21200
2.5,0.21200
2.5,0.21400
2.5,0.21600
1.0,0.21800
-0.1,0.22000
1.6,0.22200
3.1,0.22400
2.6,0.22400
3.3,0.22600
1.9,0.22800
1.2,0.23000
1.4,0.23200
0.5,0.23400
2.0,0.23400
3.7,0.23600
0.3,0.23800
-1.5,0.24000
0.3,0.24200
0.5,0.24400
2.8,0.24400
0.4,0.24600
-0.1,0.24800
2.4,0.25000
2.2,0.25200
2.3,0.25400
1.7,0.25600
0.2,0.25600
1.2,0.25800
0.7,0.26000
3.4,0.26200
1.7,0.26400
1.6,0.26600
1.2,0.26600
1.8,0.26800
1.6,0.27000
1.9,0.27200
-0.3,0.27400
3.1,0.27400
1.8,0.27600
4.3,0.27800
1.9,0.28000
1.9,0.28200
1.8,0.28400
0.9,0.28400
0.3,0.28800
2.8,0.28800
1.0,0.29000
4.3,0.29200
3.4,0.29400
-0.7,0.29600
5.4,0.29800
1.4,0.29800
-0.2,0.30000
2.8,0.30200
3.2,0.30400
3.6,0.30600
2.5,0.30600
1.0,0.30800
0.8,0.31000
1.9,0.31200
4.1,0.31400
1.5,0.31400
1.3,0.31600
2.7,0.31800
2.4,0.32000
2.0,0.32200
2.8,0.32400
1.7,0.32400
2.9,0.32600
1.2,0.32800
1.3,0.33000
2.4,0.33200
0.5,0.33400
3.3,0.33600
3.3,0.33600
1.8,0.33800
3.7,0.34000
0.2,0.34200
2.0,0.34400
2.0,0.34600
1.3,0.34600
4.9,0.34800
2.7,0.35000
2.0,0.35200
2.4,0.35400
2.3,0.35400
2.2,0.35600
1.9,0.35800
-0.5,0.36000
3.5,0.36200
1.9,0.36200
2.1,0.36400
0.9,0.36600
5.2,0.36800
3.2,0.37000
3.7,0.37200
1.6,0.37400
1.8,0.37600
1.2,0.37600
3.3,0.37800
1.9,0.38000
3.3,0.38200
3.6,0.38400
-0.6,0.38600
1.0,0.38600
2.2,0.38800
4.1,0.39000
1.8,0.39200
0.4,0.39400
1.4,0.39400
2.7,0.39600
1.6,0.39800
3.5,0.40000
1.7,0.40200
0.5,0.40400
2.0,0.40400
0.8,0.40600
2.0,0.40800
0.9,0.41000
3.1,0.41200
1.4,0.41400
-0.3,0.41600
2.0,0.41600
2.9,0.41800
0.3,0.42000
-0.2,0.42200
1.1,0.42400
2.3,0.42600
1.5,0.42600
1.1,0.42800
0.8,0.43000
0.5,0.43200
2.7,0.43400
1.3,0.43400
2.3,0.43600
2.6,0.43800
0.4,0.44000
0.7,0.44200
0.7,0.44200
1.1,0.44400
2.6,0.44600
-0.4,0.44800
1.9,0.45000
1.3,0.45200
0.1,0.45200
2.1,0.45600
1.3,0.45600
2.1,0.45800
1.0,0.46000
2.3,0.46200
2.6,0.46400
1.1,0.46600
1.5,0.46600
1.8,0.46800
1.3,0.47000
4.0,0.47200
1.7,0.47400
2.6,0.47400
0.9,0.47600
0.9,0.47800
1.5,0.48000
2.3,0.48200
1.1,0.48400
0.8,0.48400
2.3,0.48600
2.3,0.48800
3.5,0.49000
0.3,0.49200
1.2,0.49400
0.3,0.49600
1.4,0.49600
0.1,0.49800
1.3,0.50000
2.3,0.50200
1.2,0.50400
6.4,0.50600
3.5,0.50600
3.9,0.50800
6.7,0.51000
5.6,0.51200
6.9,0.51400
8.1,0.51400
7.8,0.51600
9.0,0.51800
8.1,0.52000
9.8,0.52200
10.3,0.52200
12.2,0.52400
13.9,0.52600
13.3,0.52800
9.8,0.53000
13.1,0.53200
12.6,0.53200
14.9,0.53400
15.0,0.53600
16.0,0.53800
16.7,0.54000
17.3,0.54200
18.0,0.54400
18.3,0.54400
18.5,0.54600
21.1,0.54800
19.6,0.55000
19.9,0.55200
20.2,0.55400
21.9,0.55400
22.8,0.55600
22.8,0.55800
22.3,0.56000
23.8,0.56200
25.2,0.56200
24.0,0.56400
26.0,0.56600
26.0,0.56800
29.0,0.57000
30.9,0.57200
29.3,0.57200
30.0,0.57400
29.6,0.57600
32.4,0.57800
31.7,0.58000
32.5,0.58200
32.8,0.58400
32.0,0.58400
33.5,0.58600
33.6,0.58800
34.1,0.59000
35.3,0.59200
35.8,0.59400
35.5,0.59400
37.7,0.59600
38.7,0.59800
39.6,0.60000
38.9,0.60200
40.3,0.60200
40.2,0.60400
41.0,0.60600
43.2,0.60800
42.8,0.61000
43.8,0.61200
45.5,0.61200
44.4,0.61400
45.8,0.61600
46.0,0.61800
44.5,0.62000
46.9,0.62200
46.2,0.62400
49.0,0.62400
48.2,0.62600
48.0,0.62800
47.3,0.63000
49.8,0.63200
50.7,0.63400
52.3,0.63400
51.4,0.63600
52.9,0.63800
53.0,0.64000
57.8,0.64200
54.0,0.64200
56.7,0.64400
55.5,0.64600
56.7,0.64800
57.3,0.65000
55.9,0.65000
57.0,0.65200
57.5,0.65400
58.4,0.65600
59.3,0.65800
61.6,0.66000
60.9,0.66000
63.7,0.66400
61.7,0.66400
62.4,0.66600
65.3,0.66800
65.8,0.67000
65.6,0.67200
66.0,0.67400
66.9,0.67400
67.9,0.67600
68.2,0.67800
67.4,0.68000
68.9,0.68200
69.5,0.68200
72.8,0.68400
72.4,0.68600
71.6,0.68800
74.2,0.69000
74.3,0.69000
74.6,0.69200
75.6,0.69400
73.7,0.69600
76.3,0.69800
75.8,0.70000
78.3,0.70000
79.0,0.70400
78.7,0.70400
78.5,0.70600
79.0,0.70800
79.6,0.71000
81.2,0.71200
80.2,0.71200
82.2,0.71400
84.6,0.71600
84.4,0.71800
82.6,0.72000
82.2,0.72200
82.1,0.72200
85.5,0.72400
87.8,0.72600
87.6,0.72800
87.4,0.73000
88.2,0.73000
88.5,0.73200
88.6,0.73400
91.7,0.73600
91.2,0.73800
90.7,0.73800
90.7,0.74000
91.1,0.74200
95.1,0.74400
93.6,0.74600
95.8,0.74800
97.1,0.74800
96.0,0.75000
96.1,0.75200
96.3,0.75400
97.7,0.75600
97.8,0.75800
100.4,0.76000
100.4,0.76200
100.2,0.76200
100.5,0.76400
100.5,0.76600
101.8,0.76800
104.1,0.77000
103.6,0.77000
102.8,0.77200
105.3,0.77400
104.6,0.77600
108.5,0.77800
106.6,0.78000
106.4,0.78000
110.5,0.78200
108.7,0.78400
108.8,0.78600
109.5,0.78800
111.4,0.79000
112.4,0.79200
111.5,0.79200
114.2,0.79400
111.2,0.79600
112.4,0.79800
113.7,0.80000
116.1,0.80200
115.2,0.80200
116.7,0.80400
114.9,0.80600
117.4,0.80800
117.1,0.81000
119.2,0.81000
120.9,0.81200
120.0,0.81400
122.1,0.81600
120.0,0.81800
121.0,0.82000
122.3,0.82000
124.5,0.82200
124.3,0.82400
124.8,0.82600
126.2,0.82800
124.3,0.83000
123.1,0.83200
125.4,0.83200
127.3,0.83400
130.3,0.83600
133.2,0.83800
129.7,0.84000
127.7,0.84200
130.9,0.84200
130.5,0.84400
131.6,0.84600
132.4,0.84800
135.1,0.85000
133.8,0.85000
133.5,0.85200
135.2,0.85400
135.3,0.85600
136.7,0.85800
137.1,0.85800
136.8,0.86000
138.4,0.86200
139.6,0.86400
138.5,0.86600
140.9,0.86800
140.7,0.86800
142.0,0.87000
140.8,0.87200
141.2,0.87400
142.7,0.87600
144.1,0.87800
143.6,0.88000
146.7,0.88000
146.2,0.88200
148.1,0.88400
146.9,0.88600
146.6,0.88800
151.1,0.89000
150.7,0.89000
151.9,0.89200
150.7,0.89400
151.3,0.89600
152.2,0.89800
152.2,0.90000
154.2,0.90000
154.2,0.90200
155.1,0.90400
156.3,0.90600
156.4,0.90800
155.4,0.91000
158.0,0.91200
157.6,0.91200
161.4,0.91400
158.7,0.91600
161.8,0.91800
159.8,0.92000
159.4,0.92200
161.9,0.92200
162.6,0.92400
161.0,0.92600
164.4,0.92800
163.2,0.93000
164.3,0.93000
165.0,0.93200
165.3,0.93400
167.8,0.93600
166.2,0.93800
167.8,0.94000
168.2,0.94000
170.5,0.94200
170.2,0.94400
168.0,0.94600
171.3,0.94800
171.2,0.95000
171.6,0.95200
173.4,0.95200
172.5,0.95400
174.8,0.95600
175.9,0.95800
177.5,0.96000
177.1,0.96200
179.1,0.96200
178.8,0.96400
11.3,0.96400


