""
"Test Method","UG Lab Glass 3 Pt Bend mm_N.msm"
"Sample I. D.","Tempered.mss"
"Specimen Number","1"

"Load (N)","Crosshead (mm)"

-2.0,0.00200
-2.9,0.00200
-1.0,0.00400
-1.6,0.00600
-1.7,0.00800
0.1,0.01000
-0.7,0.01200
0.5,0.01400
0.4,0.01400
-2.2,0.01600
-0.9,0.01800
-1.0,0.02000
-1.3,0.02200
-2.9,0.02400
-3.5,0.02400
-2.3,0.02600
-2.0,0.02800
-1.7,0.03000
-1.6,0.03200
-3.9,0.03200
-0.5,0.03400
-2.9,0.03600
-3.1,0.03800
-3.6,0.04000
-3.5,0.04200
0.4,0.04200
-3.1,0.04400
-3.7,0.04600
-3.0,0.04800
-3.4,0.05000
1.0,0.05200
-0.8,0.05400
-2.4,0.05400
-2.2,0.05600
-2.2,0.05800
-3.0,0.06000
-1.2,0.06200
-2.9,0.06400
-1.3,0.06400
-5.0,0.06600
-2.6,0.06800
-0.2,0.07000
-2.4,0.07200
-1.1,0.07200
-1.7,0.07400
-1.2,0.07600
-2.6,0.07800
-3.0,0.08000
-1.2,0.08000
-3.5,0.08200
-1.9,0.08400
-0.1,0.08600
-0.3,0.08800
-0.8,0.09000
-1.7,0.09000
-1.7,0.09200
0.4,0.09400
-0.9,0.09600
-0.5,0.09800
-1.9,0.10000
-0.7,0.10200
-0.1,0.10200
-2.4,0.10400
-3.9,0.10600
-0.9,0.10800
-0.8,0.11000
-0.4,0.11200
-2.9,0.11200
-1.9,0.11400
0.8,0.11600
-1.3,0.11800
-0.9,0.12000
-1.5,0.12200
-5.3,0.12200
-2.8,0.12400
-2.4,0.12600
0.7,0.12800
-1.6,0.13000
-3.2,0.13200
-0.7,0.13400
-2.5,0.13400
0.2,0.13600
0.0,0.13800
-1.6,0.14000
-0.2,0.14200
-2.4,0.14400
-2.1,0.14400
-0.9,0.14600
-2.9,0.14800
-2.0,0.15000
-1.1,0.15200
-1.4,0.15200
-1.9,0.15400
-1.9,0.15600
-1.3,0.15800
-2.7,0.16000
-0.6,0.16200
0.3,0.16200
-1.9,0.16400
-1.4,0.16600
-1.6,0.16800
-1.7,0.17000
-0.8,0.17000
-5.2,0.17400
-2.2,0.17400
-1.7,0.17600
-1.5,0.17800
0.3,0.18000
-2.5,0.18200
-1.9,0.18200
-1.5,0.18400
-1.3,0.18600
-0.6,0.18800
-3.9,0.19000
-3.8,0.19200
-2.8,0.19200
-1.6,0.19400
-2.4,0.19600
-0.8,0.19800
-2.8,0.20000
-3.1,0.20000
-2.8,0.20200
0.3,0.20400
-2.8,0.20600
-3.0,0.20800
-0.9,0.21000
-1.7,0.21000
-1.1,0.21200
-0.5,0.21400
-0.2,0.21600
0.8,0.21800
-0.7,0.22000
-0.5,0.22200
0.6,0.22200
-0.3,0.22400
-0.8,0.22600
0.4,0.22800
-1.8,0.23000
1.7,0.23200
-2.8,0.23200
-1.8,0.23400
1.1,0.23600
-1.7,0.23800
-0.5,0.24000
-1.0,0.24000
0.7,0.24200
-0.9,0.24400
-1.0,0.24600
-0.3,0.24800
0.3,0.25000
-0.2,0.25000
1.7,0.25400
-1.2,0.25400
-1.9,0.25600
-0.3,0.25800
-1.4,0.26000
-1.0,0.26200
-0.2,0.26400
0.4,0.26400
-2.0,0.26600
-1.8,0.26800
0.7,0.27000
-2.2,0.27200
-0.7,0.27200
-0.7,0.27400
-1.4,0.27600
0.4,0.27800
-0.7,0.28000
-1.2,0.28000
2.6,0.28200
0.5,0.28400
-1.6,0.28600
0.4,0.28800
-3.0,0.29000
-1.5,0.29000
-1.5,0.29200
1.7,0.29400
-0.9,0.29600
0.6,0.29800
0.3,0.30000
-1.0,0.30200
0.2,0.30200
-1.2,0.30400
-1.7,0.30600
0.6,0.30800
0.7,0.31000
1.0,0.31200
1.0,0.31200
1.3,0.31400
2.4,0.31600
3.4,0.31800
3.0,0.32000
5.8,0.32000
5.6,0.32200
5.6,0.32400
4.7,0.32600
7.5,0.32800
8.3,0.33000
6.9,0.33000
8.6,0.33400
9.3,0.33400
8.3,0.33600
7.4,0.33800
10.2,0.34000
10.8,0.34200
13.1,0.34400
12.5,0.34400
13.4,0.34600
14.2,0.34800
15.2,0.35000
16.1,0.35200
16.5,0.35200
17.5,0.35400
17.3,0.35600
18.5,0.35800
16.7,0.36000
19.1,0.36000
21.4,0.36200
19.9,0.36400
18.8,0.36600
20.7,0.36800
21.0,0.37000
22.2,0.37000
25.2,0.37200
24.8,0.37400
24.7,0.37600
23.9,0.37800
25.0,0.38000
26.1,0.38200
28.5,0.38200
30.8,0.38400
28.2,0.38600
31.2,0.38800
31.5,0.39000
29.3,0.39200
30.5,0.39200
29.9,0.39400
32.2,0.39600
31.4,0.39800
33.5,0.40000
35.3,0.40000
34.4,0.40200
34.4,0.40400
35.7,0.40600
37.8,0.40800
39.5,0.41000
38.1,0.41000
36.9,0.41200
40.0,0.41400
38.3,0.41600
39.8,0.41800
40.0,0.42000
41.0,0.42200
41.2,0.42200
42.2,0.42400
42.7,0.42600
45.1,0.42800
45.9,0.43000
47.8,0.43200
46.4,0.43200
45.9,0.43400
45.8,0.43600
47.3,0.43800
47.5,0.44000
49.0,0.44200
49.6,0.44200
50.7,0.44400
50.0,0.44600
52.4,0.44800
51.8,0.45000
54.0,0.45200
55.7,0.45400
54.4,0.45400
54.2,0.45600
54.4,0.45800
54.5,0.46000
55.6,0.46200
56.5,0.46400
57.6,0.46400
59.6,0.46600
59.2,0.46800
60.5,0.47000
60.7,0.47200
61.1,0.47200
62.3,0.47400
62.5,0.47600
63.5,0.47800
63.3,0.48000
63.8,0.48200
65.4,0.48200
64.2,0.48400
66.8,0.48600
65.0,0.48800
65.5,0.49000
69.8,0.49000
68.0,0.49200
67.5,0.49400
69.1,0.49600
70.9,0.49800
71.7,0.50000
69.7,0.50200
68.1,0.50200
71.3,0.50400
70.8,0.50600
75.1,0.50800
74.0,0.51000
73.1,0.51200
75.2,0.51200
75.6,0.51400
77.2,0.51600
77.4,0.51800
76.9,0.52000
81.1,0.52000
79.3,0.52200
80.9,0.52400
78.4,0.52600
81.4,0.52800
83.7,0.53000
82.0,0.53000
82.9,0.53200
84.1,0.53400
85.4,0.53600
85.0,0.53800
86.7,0.54000
86.2,0.54200
86.6,0.54200
88.4,0.54400
88.6,0.54600
89.5,0.54800
91.2,0.55000
91.5,0.55200
92.0,0.55200
91.2,0.55400
93.4,0.55600
93.4,0.55800
94.1,0.56000
93.6,0.56000
94.5,0.56200
95.8,0.56400
97.3,0.56600
98.8,0.56800
97.7,0.57000
96.4,0.57000
100.1,0.57200
99.3,0.57400
103.0,0.57600
99.8,0.57800
99.9,0.58000
102.9,0.58200
102.9,0.58200
105.7,0.58400
105.1,0.58600
106.4,0.58800
104.4,0.59000
105.0,0.59200
107.4,0.59200
106.4,0.59400
107.1,0.59600
110.2,0.59800
108.5,0.60000
108.7,0.60000
108.4,0.60200
110.4,0.60400
112.6,0.60600
112.5,0.60800
111.7,0.61000
113.0,0.61200
114.0,0.61400
114.5,0.61400
115.5,0.61600
116.3,0.61800
118.1,0.62000
117.9,0.62200
118.2,0.62400
118.8,0.62400
119.4,0.62600
122.1,0.62800
121.1,0.63000
122.8,0.63200
123.8,0.63200
123.2,0.63400
122.3,0.63600
125.0,0.63800
123.6,0.64000
127.5,0.64200
125.5,0.64200
127.0,0.64400
125.7,0.64600
128.8,0.64800
130.4,0.65000
129.3,0.65200
129.9,0.65400
133.9,0.65400
129.8,0.65600
131.8,0.65800
133.0,0.66000
133.6,0.66200
133.9,0.66400
133.1,0.66400
135.8,0.66600
134.4,0.66800
135.1,0.67000
134.6,0.67200
136.5,0.67200
140.1,0.67400
139.8,0.67600
139.5,0.67800
140.5,0.68000
141.6,0.68200
140.3,0.68200
141.6,0.68400
143.0,0.68600
143.2,0.68800
142.3,0.69000
145.1,0.69200
144.6,0.69400
144.3,0.69400
147.6,0.69600
146.5,0.69800
147.7,0.70000
149.5,0.70200
148.7,0.70400
149.4,0.70400
151.6,0.70600
151.8,0.70800
153.4,0.71000
152.0,0.71200
154.2,0.71200
152.5,0.71400
155.2,0.71600
156.5,0.71800
155.5,0.72000
156.8,0.72200
156.9,0.72200
156.6,0.72400
157.3,0.72600
158.9,0.72800
161.1,0.73000
161.3,0.73200
162.3,0.73400
162.0,0.73400
162.8,0.73600
161.2,0.73800
166.0,0.74000
162.8,0.74200
164.3,0.74400
165.2,0.74400
168.0,0.74600
168.0,0.74800
165.8,0.75000
168.5,0.75200
167.9,0.75200
167.9,0.75400
170.0,0.75600
169.4,0.75800
170.2,0.76000
169.7,0.76200
171.6,0.76200
173.9,0.76400
172.7,0.76600
174.8,0.76800
176.1,0.77000
174.6,0.77200
177.9,0.77400
176.8,0.77400
178.4,0.77600
177.3,0.77800
178.0,0.78000
179.0,0.78200
179.3,0.78400
182.0,0.78400
182.0,0.78600
183.1,0.78800
182.4,0.79000
181.8,0.79200
183.0,0.79200
186.0,0.79400
185.9,0.79600
186.8,0.79800
188.1,0.80000
185.9,0.80200
188.8,0.80200
188.8,0.80400
191.9,0.80600
190.8,0.80800
190.3,0.81000
191.5,0.81200
189.8,0.81400
192.0,0.81400
193.7,0.81600
193.0,0.81800
197.1,0.82000
193.6,0.82200
195.6,0.82400
196.2,0.82400
197.0,0.82600
198.5,0.82800
199.3,0.83000
199.6,0.83200
200.3,0.83200
198.2,0.83400
201.8,0.83600
201.2,0.83800
203.3,0.84000
203.0,0.84000
203.4,0.84200
203.2,0.84400
203.9,0.84600
202.7,0.84800
205.6,0.85000
207.3,0.85000
207.5,0.85200
209.0,0.85400
206.8,0.85600
208.9,0.85800
210.5,0.86000
209.8,0.86200
211.9,0.86400
212.8,0.86400
213.4,0.86600
214.6,0.86800
212.6,0.87000
214.1,0.87200
213.9,0.87200
215.7,0.87400
216.9,0.87600
217.4,0.87800
215.3,0.88000
216.4,0.88200
219.1,0.88200
220.6,0.88400
219.5,0.88600
220.9,0.88800
221.0,0.89000
221.8,0.89200
223.1,0.89400
224.2,0.89400
225.2,0.89600
224.6,0.89800
224.9,0.90000
227.2,0.90200
225.7,0.90400
225.5,0.90400
227.7,0.90600
228.2,0.90800
230.0,0.91000
229.4,0.91200
230.8,0.91200
229.0,0.91400
231.1,0.91600
233.5,0.91800
230.7,0.92000
234.1,0.92200
233.7,0.92200
234.1,0.92400
234.3,0.92600
234.6,0.92800
235.2,0.93000
237.8,0.93200
237.5,0.93400
238.2,0.93400
239.5,0.93600
238.4,0.93800
241.7,0.94000
241.6,0.94200
243.2,0.94400
242.1,0.94400
242.9,0.94600
244.5,0.94800
244.7,0.95000
244.6,0.95200
246.4,0.95200
246.0,0.95400
246.5,0.95600
248.6,0.95800
248.5,0.96000
251.8,0.96200
252.3,0.96200
252.6,0.96400
252.0,0.96600
251.0,0.96800
252.4,0.97000
253.2,0.97200
255.5,0.97400
256.7,0.97400
255.3,0.97600
257.2,0.97800
256.7,0.98000
257.1,0.98200
259.1,0.98400
258.9,0.98400
259.7,0.98600
259.9,0.98800
260.3,0.99000
260.8,0.99200
259.7,0.99200
-0.5,0.99400
-0.5,0.99400


