Date,MSFT,RHT,GOOGL
29-Sep-16,57.4,80.16,802.64
28-Sep-16,58.03,80.56,810.06
27-Sep-16,57.95,79.11,810.73
26-Sep-16,56.9,78.74,802.65
23-Sep-16,57.43,79.13,814.96
22-Sep-16,57.82,80.02,815.95
21-Sep-16,57.76,77.04,805.03
20-Sep-16,56.81,75.78,799.78
19-Sep-16,56.93,75.94,795.39
16-Sep-16,57.25,73.8,797.97
15-Sep-16,57.19,73.67,801.23
14-Sep-16,56.26,73.7,790.46
13-Sep-16,56.53,72.42,788.72
12-Sep-16,57.05,72.95,798.82
9-Sep-16,56.21,72.24,788.48
8-Sep-16,57.43,72.6,802.84
7-Sep-16,57.66,73.19,807.99
6-Sep-16,57.61,73.37,808.02
2-Sep-16,57.67,73.75,796.87
1-Sep-16,57.59,72.94,791.4
31-Aug-16,57.46,72.98,789.85
30-Aug-16,57.89,72.94,791.92
29-Aug-16,58.1,73.67,795.82
26-Aug-16,58.03,74.37,793.22
25-Aug-16,58.17,74.88,791.3
24-Aug-16,57.95,74.72,793.6
23-Aug-16,57.89,74.89,796.59
22-Aug-16,57.67,74.07,796.95
19-Aug-16,57.62,74.23,799.65
18-Aug-16,57.6,73.71,802.75
17-Aug-16,57.56,73.17,805.42
16-Aug-16,57.44,73.59,801.19
15-Aug-16,58.12,73.97,805.96
12-Aug-16,57.94,74,807.05
11-Aug-16,58.3,74.42,808.2
10-Aug-16,58.02,74.35,808.49
9-Aug-16,58.2,75.17,807.48
8-Aug-16,58.06,75.25,805.23
5-Aug-16,57.96,75.83,806.93
4-Aug-16,57.39,74.6,797.25
3-Aug-16,56.97,74.58,798.92
2-Aug-16,56.58,72.89,800.12
1-Aug-16,56.58,74.82,800.94
29-Jul-16,56.68,75.29,791.34
28-Jul-16,56.21,74.43,765.84
27-Jul-16,56.19,73.64,761.97
26-Jul-16,56.76,75.05,757.65
25-Jul-16,56.73,73.54,757.52
22-Jul-16,56.57,73.47,759.28
21-Jul-16,55.8,72.3,754.41
20-Jul-16,55.91,73.52,757.08
19-Jul-16,53.09,72.36,753.41
18-Jul-16,53.96,72.8,753.2
15-Jul-16,53.7,72.83,735.63
14-Jul-16,53.74,73.49,735.8
13-Jul-16,53.51,73.66,729.48
12-Jul-16,53.21,73.91,732.51
11-Jul-16,52.59,72.64,727.2
8-Jul-16,52.3,72.69,717.78
7-Jul-16,51.38,71.42,707.26
6-Jul-16,51.38,72.18,708.97
5-Jul-16,51.17,71.29,704.89
1-Jul-16,51.16,71.99,710.25
30-Jun-16,51.17,72.6,703.53
29-Jun-16,50.54,72.93,695.19
28-Jun-16,49.44,71.48,691.26
27-Jun-16,48.43,70.14,681.14
24-Jun-16,49.83,73.62,685.2
23-Jun-16,51.91,78.39,714.87
22-Jun-16,50.99,79.75,710.47
21-Jun-16,51.19,80.39,708.88
20-Jun-16,50.07,78.88,706.13
17-Jun-16,50.13,77.3,704.25
16-Jun-16,50.39,76.97,724.25
15-Jun-16,49.69,76.99,732.19
14-Jun-16,49.83,77.17,733.25
13-Jun-16,50.14,76.9,731.88
10-Jun-16,51.48,76.92,733.19
9-Jun-16,51.62,78.23,742.52
8-Jun-16,52.04,79.06,742.93
7-Jun-16,52.1,78.87,731.09
6-Jun-16,52.13,78.13,730.06
3-Jun-16,51.79,78.2,735.86
2-Jun-16,52.48,78.23,744.27
1-Jun-16,52.85,77.41,748.46
31-May-16,53,77.46,748.85
27-May-16,52.32,76.52,747.6
26-May-16,51.89,76.22,736.93
25-May-16,52.12,76.7,738.1
24-May-16,51.59,76.41,733.03
23-May-16,50.03,74.8,717.25
20-May-16,50.62,73.17,721.71
19-May-16,50.32,72.44,715.31
18-May-16,50.81,73,721.78
17-May-16,50.51,72.44,720.19
16-May-16,51.83,72.92,730.3
13-May-16,51.08,72.06,724.83
12-May-16,51.51,71.93,728.07
11-May-16,51.05,72.15,730.55
10-May-16,51.02,73.09,739.38
9-May-16,50.07,71.74,729.13
6-May-16,50.39,71.73,725.18
5-May-16,49.94,71.57,714.71
4-May-16,49.87,71.45,711.37
3-May-16,49.78,72.35,708.44
2-May-16,50.61,74.32,714.41
29-Apr-16,49.87,73.37,707.88
28-Apr-16,49.9,73.64,705.06
27-Apr-16,50.94,74.41,721.46
26-Apr-16,51.44,74.49,725.37
25-Apr-16,52.11,74.47,742.21
22-Apr-16,51.78,74.85,737.77
21-Apr-16,55.78,76.13,780
20-Apr-16,55.59,76.06,774.92
19-Apr-16,56.39,75.04,776.25
18-Apr-16,56.46,75.45,787.68
15-Apr-16,55.65,74.66,780
14-Apr-16,55.36,74.45,775.39
13-Apr-16,55.35,74.05,771.91
12-Apr-16,54.65,72.61,764.32
11-Apr-16,54.31,72.84,757.54
8-Apr-16,54.42,73.8,759.47
7-Apr-16,54.46,73.62,760.12
6-Apr-16,55.12,74.75,768.07
5-Apr-16,54.56,74.06,758.57
4-Apr-16,55.43,75.28,765.12
1-Apr-16,55.57,75.52,769.67
31-Mar-16,55.23,74.51,762.9
30-Mar-16,55.05,74.04,768.34
29-Mar-16,54.71,73.49,765.89
28-Mar-16,53.54,73.49,753.28
24-Mar-16,54.21,73.24,754.84
23-Mar-16,53.97,72.54,757.56
22-Mar-16,54.07,75.71,760.05
21-Mar-16,53.86,74.9,762.16
18-Mar-16,53.49,74.09,755.41
17-Mar-16,54.66,72.74,758.48
16-Mar-16,54.35,72.86,757.36
15-Mar-16,53.59,71.55,750.57
14-Mar-16,53.17,72.12,750.24
11-Mar-16,53.07,71.8,744.87
10-Mar-16,52.05,70.06,732.17
9-Mar-16,52.84,69.9,725.41
8-Mar-16,51.65,68.28,713.53
7-Mar-16,51.03,66.93,712.8
4-Mar-16,52.03,67.58,730.22
3-Mar-16,52.35,68.67,731.59
2-Mar-16,52.95,68.28,739.48
1-Mar-16,52.58,68.39,742.17
29-Feb-16,50.88,65.35,717.22
26-Feb-16,51.3,67.98,724.86
25-Feb-16,52.1,67.68,729.12
24-Feb-16,51.36,65.36,720.9
23-Feb-16,51.18,65.3,717.29
22-Feb-16,52.65,66.11,729.05
19-Feb-16,51.82,65.9,722.11
18-Feb-16,52.19,65.35,717.51
17-Feb-16,52.42,66.34,731.97
16-Feb-16,51.09,63.84,717.64
12-Feb-16,50.5,64.11,706.89
11-Feb-16,49.69,61.97,706.36
10-Feb-16,49.71,63.54,706.85
9-Feb-16,49.28,61.6,701.02
8-Feb-16,49.41,60.93,704.16
5-Feb-16,50.16,63.14,703.76
4-Feb-16,52,68.62,730.03
3-Feb-16,52.16,67.7,749.38
2-Feb-16,53,67.83,780.91
1-Feb-16,54.71,70.44,770.77
29-Jan-16,55.09,70.05,761.35
28-Jan-16,52.06,67.39,748.3
27-Jan-16,51.22,67.99,717.58
26-Jan-16,52.17,70.96,733.79
25-Jan-16,51.79,71.74,733.62
22-Jan-16,52.29,72.46,745.46
21-Jan-16,50.48,70.31,726.67
20-Jan-16,50.79,70.49,718.56
19-Jan-16,50.56,71.6,719.08
15-Jan-16,50.99,73.57,710.49
14-Jan-16,53.11,76.53,731.39
13-Jan-16,51.64,76.6,719.57
12-Jan-16,52.78,78.68,745.34
11-Jan-16,52.3,78.28,733.07
8-Jan-16,52.33,79.15,730.91
7-Jan-16,52.17,79.49,741
6-Jan-16,54.05,80.59,759.33
5-Jan-16,55.05,81.91,761.53
4-Jan-16,54.8,81.71,759.44
31-Dec-15,55.48,82.81,778.01
30-Dec-15,56.31,83.65,790.3
29-Dec-15,56.55,83.53,793.96
28-Dec-15,55.95,82.34,782.24
24-Dec-15,55.67,81.74,765.84
23-Dec-15,55.82,82.2,768.51
22-Dec-15,55.35,80.89,767.13
21-Dec-15,54.83,80.44,760.8
18-Dec-15,54.13,81.4,756.85
17-Dec-15,55.7,78.86,769.83
16-Dec-15,56.13,78.77,776.59
15-Dec-15,55.2,78.06,760.09
14-Dec-15,55.14,77.49,762.54
11-Dec-15,54.06,78.58,750.42
10-Dec-15,55.27,79.63,760.04
9-Dec-15,54.98,79.05,762.55
8-Dec-15,55.79,81,775.14
7-Dec-15,55.81,80.52,772.99
4-Dec-15,55.91,81.89,779.21
3-Dec-15,54.2,80.33,768.2
2-Dec-15,55.21,81.61,777.85
1-Dec-15,55.22,82.22,783.79
30-Nov-15,54.35,81.41,762.85
27-Nov-15,53.93,82.5,771.97
25-Nov-15,53.69,82.52,769.26
24-Nov-15,54.25,82.05,769.63
23-Nov-15,54.19,82.75,776.7
20-Nov-15,54.19,82.21,777
19-Nov-15,53.94,81.32,759.94
18-Nov-15,53.85,80.53,760.01
17-Nov-15,52.97,80.28,745.98
16-Nov-15,53.76,79.09,750.42
13-Nov-15,52.84,77.83,740.07
12-Nov-15,53.32,79.81,756.53
11-Nov-15,53.65,81.46,765.25
10-Nov-15,53.51,80.8,758.26
9-Nov-15,54.16,80.29,754.77
6-Nov-15,54.92,81.02,761.6
5-Nov-15,54.38,81.57,760.67
4-Nov-15,54.4,82.55,755.31
3-Nov-15,54.15,80.85,748.82
2-Nov-15,53.24,80.14,747.74
30-Oct-15,52.64,79.11,737.39
29-Oct-15,53.36,78.85,744.85
28-Oct-15,53.98,79.08,736.92
27-Oct-15,53.69,77.87,732.82
26-Oct-15,54.25,77.78,731.12
23-Oct-15,52.87,77.39,719.33
22-Oct-15,48.03,76.97,681.14
21-Oct-15,47.2,76.81,671.8
20-Oct-15,47.77,78.26,680
19-Oct-15,47.62,78.9,699.95
16-Oct-15,47.51,77.62,695.32
15-Oct-15,47.01,77.7,693.02
14-Oct-15,46.68,75.12,680.41
13-Oct-15,46.89,74.72,683.17
12-Oct-15,47,75.98,676.43
9-Oct-15,47.11,76.48,671.24
8-Oct-15,47.45,75.14,667
7-Oct-15,46.8,74.17,670
6-Oct-15,46.75,72.79,671.64
5-Oct-15,46.63,74.12,671.68
